<svg viewBox="0 0 16 16" fill="none" xmlns="http://www.w3.org/2000/svg">
<rect x="2.34314" y="0.727051" width="18.2857" height="2.28571" transform="rotate(45 2.34314 0.727051)" fill="#1B1B1B"/>
<rect width="18.2857" height="2.28571" transform="matrix(-0.707107 0.707107 0.707107 0.707107 13.6569 0.727051)" fill="#1B1B1B"/>
</svg>
